io/swagger/configuration/LocalDateConverter.class
com/praxis/UserMgrApp.class
io/swagger/configuration/CustomInstantDeserializer$9.class
io/swagger/configuration/CustomInstantDeserializer$2.class
io/swagger/configuration/CustomInstantDeserializer$12.class
io/swagger/configuration/CustomInstantDeserializer$4.class
io/swagger/configuration/CustomInstantDeserializer$7.class
io/swagger/api/TxnApiController.class
io/swagger/model/Txn.class
io/swagger/api/ApiOriginFilter.class
io/swagger/configuration/CustomInstantDeserializer$5.class
io/swagger/model/Category.class
io/swagger/configuration/HomeController.class
io/swagger/configuration/CustomInstantDeserializer$FromDecimalArguments.class
com/praxis/jpa/repository/UserManager.class
io/swagger/configuration/CustomInstantDeserializer$10.class
io/swagger/RFC3339DateFormat.class
io/swagger/api/ApiException.class
com/praxis/UserMgrApp$CustomDateConfig.class
io/swagger/configuration/CustomInstantDeserializer$8.class
io/swagger/configuration/LocalDateTimeConverter.class
io/swagger/api/UserApi.class
io/swagger/configuration/CustomInstantDeserializer$FromIntegerArguments.class
io/swagger/api/AddressApiController.class
io/swagger/configuration/CustomInstantDeserializer$11.class
io/swagger/api/TxnApi.class
io/swagger/configuration/JacksonConfiguration.class
io/swagger/configuration/SwaggerUiConfiguration.class
com/praxis/jpa/models/User.class
io/swagger/api/AddressApi.class
io/swagger/configuration/CustomInstantDeserializer$3.class
io/swagger/configuration/CustomInstantDeserializer.class
io/swagger/model/Address.class
io/swagger/api/ApiResponseMessage.class
io/swagger/model/ModelApiResponse.class
io/swagger/api/UserApiControllerImpl.class
io/swagger/configuration/CustomInstantDeserializer$6.class
io/swagger/api/NotFoundException.class
io/swagger/model/User.class
io/swagger/configuration/SwaggerDocumentationConfig.class
com/praxis/UserMgrApp$ExitException.class
io/swagger/configuration/CustomInstantDeserializer$1.class
